[gd_scene load_steps=2 format=2]

[ext_resource path="res://UI/YellowClaim.png" type="Texture" id=1]

[node name="Claim" type="Node2D" index="0"]

z_index = 2
_sections_unfolded = [ "Material", "Offset", "Transform", "Visibility", "Z Index" ]

[node name="Sprite" type="Sprite" parent="." index="0"]

texture = ExtResource( 1 )
centered = false
_sections_unfolded = [ "Animation", "Offset", "Region", "Transform", "Z Index" ]


