[gd_scene load_steps=6 format=2]

[ext_resource path="res://Player/Prospector.gd" type="Script" id=1]
[ext_resource path="res://Player/Claim.tscn" type="PackedScene" id=2]
[ext_resource path="res://Structures/Tent.tscn" type="PackedScene" id=3]
[ext_resource path="res://Player/Duelers/ProspectorDueler.tscn" type="PackedScene" id=4]
[ext_resource path="res://Player/Parts/ProspectorPelvis.tscn" type="PackedScene" id=5]

[node name="Prospector" type="Node2D" index="0"]

z_index = 3
script = ExtResource( 1 )
_sections_unfolded = [ "Transform", "Z Index" ]
claim = ExtResource( 2 )
home = ExtResource( 3 )
dueler = ExtResource( 4 )
speed = 2048

[node name="Pelvis" parent="." index="0" instance=ExtResource( 5 )]


