[gd_scene load_steps=3 format=2]

[ext_resource path="res://Player/Duelers/CurlyDueler.gd" type="Script" id=1]
[ext_resource path="res://Player/Parts/CurlyPelvis.tscn" type="PackedScene" id=2]

[node name="CurlyDueler" type="Node2D"]

z_index = 6
script = ExtResource( 1 )
_sections_unfolded = [ "Z Index" ]
delay_base = 0.5
delay_variance = 0.25

[node name="Pelvis" parent="." index="0" instance=ExtResource( 2 )]


