[gd_scene load_steps=7 format=2]

[ext_resource path="res://UI/Highlight.png" type="Texture" id=1]
[ext_resource path="res://UI/UnHighlight.png" type="Texture" id=2]
[ext_resource path="res://UI/DuelHighlight.png" type="Texture" id=3]
[ext_resource path="res://UI/ClearHighlight.png" type="Texture" id=4]
[ext_resource path="res://UI/Highlight.gd" type="Script" id=5]

[sub_resource type="SpriteFrames" id=1]

animations = [ {
"frames": [ ExtResource( 1 ), ExtResource( 2 ), ExtResource( 3 ), ExtResource( 4 ) ],
"loop": false,
"name": "default",
"speed": 5.0
} ]
_sections_unfolded = [ "Resource" ]

[node name="Highlight" type="AnimatedSprite"]

z_index = 4
frames = SubResource( 1 )
animation = "default"
centered = false
script = ExtResource( 5 )
_sections_unfolded = [ "Offset", "Transform", "Z Index" ]


