[gd_scene load_steps=17 format=2]

[ext_resource path="res://World.gd" type="Script" id=1]
[ext_resource path="res://Structures/Rock.tscn" type="PackedScene" id=2]
[ext_resource path="res://Structures/Skull.tscn" type="PackedScene" id=3]
[ext_resource path="res://Structures/Cactus.tscn" type="PackedScene" id=4]
[ext_resource path="res://Tiles/Gold.tres" type="TileSet" id=5]
[ext_resource path="res://GoldMap.gd" type="Script" id=6]
[ext_resource path="res://UI/Highlight.tscn" type="PackedScene" id=7]
[ext_resource path="res://EdgePan.gd" type="Script" id=8]
[ext_resource path="res://UI/UI.tscn" type="PackedScene" id=9]
[ext_resource path="res://UI/DuelingStage.tscn" type="PackedScene" id=10]
[ext_resource path="res://Music/Lobo_Loco_-_Glueworm_Evening_Blues_ID_994.ogg" type="AudioStream" id=11]
[ext_resource path="res://Player/Larry.tscn" type="PackedScene" id=12]
[ext_resource path="res://Player/Prospector.tscn" type="PackedScene" id=13]
[ext_resource path="res://Player/Curly.tscn" type="PackedScene" id=14]
[ext_resource path="res://Player/Harpo.tscn" type="PackedScene" id=15]
[ext_resource path="res://Player/Moe.tscn" type="PackedScene" id=16]

[node name="World" type="Node2D"]

script = ExtResource( 1 )
rock = ExtResource( 2 )
skull = ExtResource( 3 )
cactus = ExtResource( 4 )
debris_per_player = 2
gold_4_per_player = 2
gold_3_per_player = 3
gold_2_per_player = 4
gold_1_per_player = 5

[node name="TileMap" type="TileMap" parent="." index="0"]

mode = 0
tile_set = ExtResource( 5 )
cell_size = Vector2( 1024, 1024 )
cell_quadrant_size = 16
cell_custom_transform = Transform2D( 1, 0, 0, 1, 0, 0 )
cell_half_offset = 2
cell_tile_origin = 0
cell_y_sort = false
cell_clip_uv = false
collision_use_kinematic = false
collision_friction = 1.0
collision_bounce = 0.0
collision_layer = 1
collision_mask = 1
occluder_light_mask = 1
format = 1
tile_data = PoolIntArray( 0, 0, 0, 1, 0, 0, 2, 0, 0, 3, 0, 0, 4, 0, 0, 5, 0, 0, 6, 0, 0, 7, 0, 0, 8, 0, 0, 65536, 0, 0, 65537, 1, 0, 65538, 0, 0, 65539, 0, 0, 65540, 1, 0, 65541, 0, 0, 65542, 0, 0, 65543, 1, 0, 65544, 0, 0, 131072, 0, 0, 131073, 0, 0, 131074, 0, 0, 131075, 0, 0, 131076, 0, 0, 131077, 0, 0, 131078, 0, 0, 131079, 0, 0, 131080, 0, 0, 196608, 0, 0, 196609, 0, 0, 196610, 0, 0, 196611, 0, 0, 196612, 0, 0, 196613, 0, 0, 196614, 0, 0, 196615, 0, 0, 196616, 0, 0, 262144, 0, 0, 262145, 1, 0, 262146, 0, 0, 262147, 0, 0, 262148, 1, 0, 262149, 0, 0, 262150, 0, 0, 262151, 1, 0, 262152, 0, 0, 327680, 0, 0, 327681, 0, 0, 327682, 0, 0, 327683, 0, 0, 327684, 0, 0, 327685, 0, 0, 327686, 0, 0, 327687, 0, 0, 327688, 0, 0, 393216, 0, 0, 393217, 0, 0, 393218, 0, 0, 393219, 0, 0, 393220, 0, 0, 393221, 0, 0, 393222, 0, 0, 393223, 0, 0, 393224, 0, 0, 458752, 0, 0, 458753, 1, 0, 458754, 0, 0, 458755, 0, 0, 458756, 1, 0, 458757, 0, 0, 458758, 0, 0, 458759, 1, 0, 458760, 0, 0, 524288, 0, 0, 524289, 0, 0, 524290, 0, 0, 524291, 0, 0, 524292, 0, 0, 524293, 0, 0, 524294, 0, 0, 524295, 0, 0, 524296, 0, 0 )
script = ExtResource( 6 )

[node name="Highlight" parent="TileMap" index="0" instance=ExtResource( 7 )]

[node name="Camera2D" type="Camera2D" parent="TileMap" index="1"]

position = Vector2( 4350.56, 5836.26 )
anchor_mode = 0
rotating = false
current = true
zoom = Vector2( 7, 7 )
limit_left = -10000000
limit_top = -10000000
limit_right = 10000000
limit_bottom = 10000000
limit_smoothed = false
drag_margin_h_enabled = true
drag_margin_v_enabled = true
smoothing_enabled = false
smoothing_speed = 5.0
offset_v = 0.0
offset_h = 0.0
drag_margin_left = 0.2
drag_margin_top = 0.2
drag_margin_right = 0.2
drag_margin_bottom = 0.2
editor_draw_screen = true
editor_draw_limits = false
editor_draw_drag_margin = false
script = ExtResource( 8 )
_sections_unfolded = [ "Limit", "Transform" ]
edge_sensitivity = 64
pan_speed = 5000

[node name="CanvasLayer" type="CanvasLayer" parent="TileMap/Camera2D" index="0"]

layer = 1
offset = Vector2( 0, 0 )
rotation = 0.0
scale = Vector2( 1, 1 )
transform = Transform2D( 1, 0, 0, 1, 0, 0 )

[node name="UI" parent="TileMap/Camera2D/CanvasLayer" index="0" instance=ExtResource( 9 )]

margin_left = -1.0
margin_top = -1.0
margin_right = 56.0
margin_bottom = 39.0

[node name="DuelingStage" parent="TileMap/Camera2D" index="1" instance=ExtResource( 10 )]

visible = false
_sections_unfolded = [ "Transform", "Z Index" ]

[node name="AudioStreamPlayer2D" type="AudioStreamPlayer2D" parent="TileMap/Camera2D" index="2"]

stream = ExtResource( 11 )
volume_db = 5.0
autoplay = true
max_distance = 2000.0
attenuation = 1.0
bus = "Master"
area_mask = 1

[node name="Larry" parent="TileMap" index="2" instance=ExtResource( 12 )]

position = Vector2( 7680.27, 7617.53 )

[node name="Prospector" parent="TileMap" index="3" instance=ExtResource( 13 )]

position = Vector2( 1522.32, 7621.53 )

[node name="Curly" parent="TileMap" index="4" instance=ExtResource( 14 )]

position = Vector2( 4537.41, 4605.19 )

[node name="Harpo" parent="TileMap" index="5" instance=ExtResource( 15 )]

position = Vector2( 1442.46, 1509.68 )

[node name="Moe" parent="TileMap" index="6" instance=ExtResource( 16 )]

position = Vector2( 7571.42, 1428.94 )


